<?xml version="1.0" encoding="utf-8"?>
<!-- Generator: Adobe Illustrator 16.0.0, SVG Export Plug-In . SVG Version: 6.00 Build 0)  -->
<!DOCTYPE svg PUBLIC "-//W3C//DTD SVG 1.1//EN" "http://www.w3.org/Graphics/SVG/1.1/DTD/svg11.dtd">
<svg version="1.1" id="Layer_1" xmlns="http://www.w3.org/2000/svg" xmlns:xlink="http://www.w3.org/1999/xlink" x="0px" y="0px"
	 width="500px" height="250px" viewBox="0 0 500 250" enable-background="new 0 0 500 250" xml:space="preserve">
<g>
	<g>
		<path fill="#EDEDED" d="M397.707,58.068h0.107v-5.054H102.186v5.054h0.108c3.198,0,5.79,2.592,5.79,5.79s-2.592,5.79-5.79,5.79
			h-0.108v6.253h0.108c3.198,0,5.79,2.592,5.79,5.79s-2.592,5.79-5.79,5.79h-0.108v6.253h0.108c3.198,0,5.79,2.592,5.79,5.79
			s-2.592,5.79-5.79,5.79h-0.108v5.119c6.177,1.963,10.653,7.74,10.653,14.567c0,6.827-4.477,12.604-10.653,14.567v6.046h0.108
			c3.198,0,5.79,2.592,5.79,5.79c0,3.197-2.592,5.789-5.79,5.789h-0.108v6.254h0.108c3.198,0,5.79,2.592,5.79,5.79
			c0,3.197-2.592,5.79-5.79,5.79h-0.108v6.253h0.108c3.198,0,5.79,2.593,5.79,5.79s-2.592,5.79-5.79,5.79h-0.108v4.127h295.629
			v-4.127h-0.107c-3.197,0-5.791-2.593-5.791-5.79s2.594-5.79,5.791-5.79h0.107v-6.253h-0.107c-3.197,0-5.791-2.593-5.791-5.79
			c0-3.198,2.594-5.79,5.791-5.79h0.107v-6.254h-0.107c-3.197,0-5.791-2.592-5.791-5.789c0-3.198,2.594-5.79,5.791-5.79h0.107
			v-6.046c-6.178-1.963-10.653-7.74-10.653-14.567c0-6.827,4.476-12.604,10.653-14.567v-5.119h-0.107
			c-3.197,0-5.791-2.592-5.791-5.79s2.594-5.79,5.791-5.79h0.107v-6.253h-0.107c-3.197,0-5.791-2.592-5.791-5.79
			s2.594-5.79,5.791-5.79h0.107v-6.253h-0.107c-3.197,0-5.791-2.592-5.791-5.79S394.51,58.068,397.707,58.068z"/>
	</g>
	<g>
		<path fill="#ED396C" d="M173.717,140.518l10.938-1.133c0.312,2.475,1.236,4.434,2.773,5.879c1.536,1.445,3.307,2.168,5.312,2.168
			c2.291,0,4.231-0.932,5.82-2.793c1.588-1.861,2.383-4.668,2.383-8.418c0-3.516-0.788-6.152-2.363-7.91
			c-1.576-1.758-3.627-2.637-6.152-2.637c-3.151,0-5.977,1.393-8.477,4.18l-8.906-1.289l5.625-29.805h29.023v10.273H188.99
			l-1.719,9.727c2.447-1.224,4.947-1.836,7.5-1.836c4.869,0,8.997,1.771,12.383,5.313c3.385,3.541,5.078,8.139,5.078,13.789
			c0,4.713-1.367,8.92-4.102,12.617c-3.725,5.053-8.894,7.578-15.508,7.578c-5.287,0-9.597-1.42-12.93-4.258
			C176.359,149.125,174.367,145.309,173.717,140.518z"/>
		<path fill="#ED396C" d="M236.607,97.744c5.547,0,9.883,1.979,13.008,5.938c3.724,4.688,5.586,12.461,5.586,23.321
			c0,10.834-1.875,18.619-5.625,23.359c-3.1,3.906-7.422,5.859-12.969,5.859c-5.573,0-10.065-2.143-13.477-6.426
			c-3.412-4.283-5.117-11.92-5.117-22.91c0-10.782,1.875-18.542,5.625-23.282C226.737,99.697,231.061,97.744,236.607,97.744z
			 M236.607,106.845c-1.328,0-2.514,0.424-3.555,1.27c-1.042,0.847-1.85,2.363-2.422,4.551c-0.756,2.839-1.133,7.617-1.133,14.336
			c0,6.719,0.338,11.334,1.016,13.848c0.677,2.514,1.529,4.186,2.559,5.02c1.028,0.834,2.207,1.25,3.535,1.25
			s2.513-0.424,3.555-1.27c1.041-0.846,1.849-2.363,2.422-4.551c0.755-2.812,1.133-7.578,1.133-14.297
			c0-6.719-0.339-11.334-1.016-13.848c-0.678-2.513-1.53-4.192-2.559-5.039C239.113,107.269,237.936,106.845,236.607,106.845z"/>
		<path fill="#ED396C" d="M262.623,112.119c0-5.13,1.126-8.932,3.379-11.406c2.252-2.474,5.306-3.711,9.16-3.711
			c3.984,0,7.103,1.23,9.355,3.691c2.252,2.461,3.379,6.27,3.379,11.426c0,5.131-1.127,8.933-3.379,11.407
			c-2.253,2.475-5.307,3.711-9.16,3.711c-3.984,0-7.104-1.23-9.355-3.691C263.749,121.083,262.623,117.275,262.623,112.119z
			 M271.178,112.041c0,3.725,0.43,6.225,1.289,7.5c0.65,0.938,1.549,1.406,2.695,1.406c1.172,0,2.083-0.469,2.734-1.406
			c0.833-1.275,1.25-3.775,1.25-7.5c0-3.724-0.417-6.211-1.25-7.461c-0.651-0.963-1.562-1.445-2.734-1.445
			c-1.146,0-2.045,0.469-2.695,1.406C271.607,105.817,271.178,108.317,271.178,112.041z M283.521,157.432h-8.125l30.508-60.43h7.891
			L283.521,157.432z M301.256,142.393c0-5.131,1.126-8.932,3.379-11.406c2.252-2.475,5.332-3.711,9.238-3.711
			c3.932,0,7.024,1.236,9.277,3.711c2.252,2.475,3.379,6.275,3.379,11.406c0,5.156-1.127,8.971-3.379,11.445
			c-2.253,2.473-5.307,3.711-9.16,3.711c-3.984,0-7.104-1.238-9.355-3.711C302.382,151.363,301.256,147.549,301.256,142.393z
			 M309.811,142.354c0,3.725,0.43,6.211,1.289,7.461c0.65,0.963,1.549,1.445,2.695,1.445c1.172,0,2.07-0.469,2.695-1.406
			c0.859-1.275,1.289-3.775,1.289-7.5s-0.417-6.225-1.25-7.5c-0.651-0.938-1.562-1.406-2.734-1.406s-2.07,0.469-2.695,1.406
			C310.24,136.129,309.811,138.629,309.811,142.354z"/>
	</g>
	<g>
		<g>
			<polygon fill="#323133" points="146.341,67.31 143.928,65.57 141.526,67.331 142.435,64.495 140.018,62.755 142.995,62.744 
				143.904,59.907 144.835,62.735 147.812,62.722 145.412,64.482 			"/>
			<polygon fill="#323133" points="161.416,67.31 159.003,65.57 156.601,67.331 157.51,64.495 155.093,62.755 158.07,62.744 
				158.979,59.907 159.91,62.735 162.887,62.722 160.487,64.482 			"/>
			<polygon fill="#323133" points="176.49,67.31 174.078,65.57 171.675,67.331 172.584,64.495 170.167,62.755 173.145,62.744 
				174.054,59.907 174.984,62.735 177.961,62.722 175.562,64.482 			"/>
			<polygon fill="#323133" points="191.565,67.31 189.152,65.57 186.75,67.331 187.659,64.495 185.242,62.755 188.219,62.744 
				189.128,59.907 190.06,62.735 193.037,62.722 190.636,64.482 			"/>
			<polygon fill="#323133" points="206.64,67.31 204.227,65.57 201.825,67.331 202.733,64.495 200.317,62.755 203.294,62.744 
				204.203,59.907 205.134,62.735 208.111,62.722 205.711,64.482 			"/>
			<polygon fill="#323133" points="221.715,67.31 219.302,65.57 216.899,67.331 217.809,64.495 215.392,62.755 218.369,62.744 
				219.278,59.907 220.209,62.735 223.186,62.722 220.786,64.482 			"/>
			<polygon fill="#323133" points="236.789,67.31 234.376,65.57 231.975,67.331 232.883,64.495 230.467,62.755 233.443,62.744 
				234.353,59.907 235.283,62.735 238.261,62.722 235.86,64.482 			"/>
			<polygon fill="#323133" points="251.863,67.31 249.451,65.57 247.049,67.331 247.958,64.495 245.541,62.755 248.519,62.744 
				249.427,59.907 250.358,62.735 253.335,62.722 250.936,64.482 			"/>
			<polygon fill="#323133" points="266.938,67.31 264.525,65.57 262.124,67.331 263.032,64.495 260.615,62.755 263.594,62.744 
				264.502,59.907 265.434,62.735 268.41,62.722 266.01,64.482 			"/>
			<polygon fill="#323133" points="282.014,67.31 279.6,65.57 277.198,67.331 278.107,64.495 275.69,62.755 278.667,62.744 
				279.577,59.907 280.507,62.735 283.484,62.722 281.085,64.482 			"/>
			<polygon fill="#323133" points="297.088,67.31 294.675,65.57 292.273,67.331 293.182,64.495 290.766,62.755 293.742,62.744 
				294.652,59.907 295.582,62.735 298.56,62.722 296.16,64.482 			"/>
			<polygon fill="#323133" points="312.163,67.31 309.75,65.57 307.349,67.331 308.257,64.495 305.841,62.755 308.816,62.744 
				309.727,59.907 310.656,62.735 313.635,62.722 311.233,64.482 			"/>
			<polygon fill="#323133" points="327.238,67.31 324.825,65.57 322.422,67.331 323.332,64.495 320.915,62.755 323.892,62.744 
				324.8,59.907 325.731,62.735 328.71,62.722 326.308,64.482 			"/>
			<polygon fill="#323133" points="342.312,67.31 339.899,65.57 337.496,67.331 338.406,64.495 335.99,62.755 338.967,62.744 
				339.875,59.907 340.807,62.735 343.783,62.722 341.383,64.482 			"/>
			<polygon fill="#323133" points="357.388,67.31 354.975,65.57 352.571,67.331 353.481,64.495 351.063,62.755 354.041,62.744 
				354.95,59.907 355.882,62.735 358.857,62.722 356.458,64.482 			"/>
		</g>
	</g>
	<g>
		<g>
			<polygon fill="#323133" points="146.341,187.196 143.928,185.457 141.526,187.218 142.435,184.382 140.018,182.643 
				142.995,182.631 143.904,179.795 144.835,182.622 147.812,182.609 145.412,184.37 			"/>
			<polygon fill="#323133" points="161.416,187.196 159.003,185.457 156.601,187.218 157.51,184.382 155.093,182.643 
				158.07,182.631 158.979,179.795 159.91,182.622 162.887,182.609 160.487,184.37 			"/>
			<polygon fill="#323133" points="176.49,187.196 174.078,185.457 171.675,187.218 172.584,184.382 170.167,182.643 
				173.145,182.631 174.054,179.795 174.984,182.622 177.961,182.609 175.562,184.37 			"/>
			<polygon fill="#323133" points="191.565,187.196 189.152,185.457 186.75,187.218 187.659,184.382 185.242,182.643 
				188.219,182.631 189.128,179.795 190.06,182.622 193.037,182.609 190.636,184.37 			"/>
			<polygon fill="#323133" points="206.64,187.196 204.227,185.457 201.825,187.218 202.733,184.382 200.317,182.643 
				203.294,182.631 204.203,179.795 205.134,182.622 208.111,182.609 205.711,184.37 			"/>
			<polygon fill="#323133" points="221.715,187.196 219.302,185.457 216.899,187.218 217.809,184.382 215.392,182.643 
				218.369,182.631 219.278,179.795 220.209,182.622 223.186,182.609 220.786,184.37 			"/>
			<polygon fill="#323133" points="236.789,187.196 234.376,185.457 231.975,187.218 232.883,184.382 230.467,182.643 
				233.443,182.631 234.353,179.795 235.283,182.622 238.261,182.609 235.86,184.37 			"/>
			<polygon fill="#323133" points="251.863,187.196 249.451,185.457 247.049,187.218 247.958,184.382 245.541,182.643 
				248.519,182.631 249.427,179.795 250.358,182.622 253.335,182.609 250.936,184.37 			"/>
			<polygon fill="#323133" points="266.938,187.196 264.525,185.457 262.124,187.218 263.032,184.382 260.615,182.643 
				263.594,182.631 264.502,179.795 265.434,182.622 268.41,182.609 266.01,184.37 			"/>
			<polygon fill="#323133" points="282.014,187.196 279.6,185.457 277.198,187.218 278.107,184.382 275.69,182.643 278.667,182.631 
				279.577,179.795 280.507,182.622 283.484,182.609 281.085,184.37 			"/>
			<polygon fill="#323133" points="297.088,187.196 294.675,185.457 292.273,187.218 293.182,184.382 290.766,182.643 
				293.742,182.631 294.652,179.795 295.582,182.622 298.56,182.609 296.16,184.37 			"/>
			<polygon fill="#323133" points="312.163,187.196 309.75,185.457 307.349,187.218 308.257,184.382 305.841,182.643 
				308.816,182.631 309.727,179.795 310.656,182.622 313.635,182.609 311.233,184.37 			"/>
			<polygon fill="#323133" points="327.238,187.196 324.825,185.457 322.422,187.218 323.332,184.382 320.915,182.643 
				323.892,182.631 324.8,179.795 325.731,182.622 328.71,182.609 326.308,184.37 			"/>
			<polygon fill="#323133" points="342.312,187.196 339.899,185.457 337.496,187.218 338.406,184.382 335.99,182.643 
				338.967,182.631 339.875,179.795 340.807,182.622 343.783,182.609 341.383,184.37 			"/>
			<polygon fill="#323133" points="357.388,187.196 354.975,185.457 352.571,187.218 353.481,184.382 351.063,182.643 
				354.041,182.631 354.95,179.795 355.882,182.622 358.857,182.609 356.458,184.37 			"/>
		</g>
	</g>
</g>
</svg>
